{
  "name": "isthisnagee/minimal-vim",
  "version": "0.1.4",
  "libraries": {
    "xv": "^1.1.25"
  },
  "title": "",
  "branch": "",
  "style": {
    "name": "Brutalist",
    "componentSet": {
      "nav": "nav/BasicNav",
      "header": "header/BasicHeader",
      "article": "article/MarkdownArticle",
      "footer": "footer/BasicFooter"
    },
    "fontFamily": "Consolas, \"Liberation Mono\", Menlo, Courier, monospace",
    "heading": {},
    "typeScale": [
      48,
      32,
      20,
      18,
      16,
      14,
      12
    ],
    "layout": {
      "maxWidth": 1024,
      "fluid": true
    },
    "colors": {
      "text": "#333",
      "background": "#fff",
      "primary": "#666",
      "secondary": "#888",
      "highlight": "#1f80ff",
      "muted": "#f6f6f6",
      "border": "#eee"
    }
  },
  "content": [
    {
      "component": "nav",
      "links": [
        {
          "href": "https://github.com/isthisnagee/minimal-vim",
          "text": "GitHub"
        }
      ]
    },
    {
      "component": "header",
      "heading": "minimal-vim",
      "subhead": "A minimalist setup for vim",
      "children": [
        {
          "component": "ui/TweetButton",
          "text": "minimal-vim: A minimalist setup for vim",
          "url": null
        },
        {
          "component": "ui/GithubButton",
          "user": "isthisnagee",
          "repo": "minimal-vim"
        }
      ]
    },
    {
      "component": "article",
      "metadata": {
        "source": "github.readme"
      },
      "html": "\n<p>A minimalist setup for vim. This was inspired by <a href=\"https://github.com/cassidoo\">@cassidoo&apos;s</a> <a href=\"https://github.com/cassidoo/vim-up\">vim-up</a>, but aimed at people new to vim. It introduces <code>:help</code>, plugins, and some remaps.</p>\n<p>I encourage users to explore other vimrcs, but not to add anything unless they have a need for it. Do not blindly copy+paste, and take things slowly. Vim may be very overwhelming at first.</p>\n<h1>Setup</h1>\n<ol>\n<li><p>Download <a href=\"https://github.com/junegunn/vim-plug\">vim-plug</a></p>\n<p> The 3 methods below are from junegunn&apos;s readme.  </p>\n<h6>Unix</h6>\n<pre> curl <span class=\"hljs-_\">-f</span>Lo ~/.vim/<span class=\"hljs-built_in\">autoload</span>/plug.vim --create-dirs \\\n     https://raw.githubusercontent.com/junegunn/vim-plug/master/plug.vim</pre><h6>Neovim</h6>\n<pre> curl <span class=\"hljs-_\">-f</span>Lo ~/.config/nvim/<span class=\"hljs-built_in\">autoload</span>/plug.vim --create-dirs \\\n     https://raw.githubusercontent.com/junegunn/vim-plug/master/plug.vim</pre><h6>Windows (PowerShell)</h6>\n<pre> md ~\\vimfiles\\autoload\n <span class=\"hljs-variable\">$uri</span> = <span class=\"hljs-string\">&apos;https://raw.githubusercontent.com/junegunn/vim-plug/master/plug.vim&apos;</span>\n (<span class=\"hljs-built_in\">New-Object</span> Net.WebClient).DownloadFile(<span class=\"hljs-variable\">$uri</span>, <span class=\"hljs-variable\">$ExecutionContext</span>.SessionState.Path.GetUnresolvedProviderPathFromPSPath(<span class=\"hljs-string\">&quot;~\\vimfiles\\autoload\\plug.vim&quot;</span>))</pre></li>\n<li><p>If you have a current <code>.vimrc</code>, and would like to try this out, save a copy of it. Grab the text in the <code>vimrc</code> file in this repo, and place it in <code>~/.vimrc</code>.</p>\n</li>\n<li><p>Open <code>.vimrc</code> and run <code>:PlugInstall</code>.</p>\n</li>\n</ol>\n<h2>TODO</h2>\n<ul>\n<li>[ ] Add an actual installation process that allows for an easy add/remove of the <code>vimrc</code> file\nand allows for a <code>git pull</code> update.</li>\n<li>[ ] finsih accompanying blog post describing reasoning and intended audience. </li>\n<li>[ ] have fun</li>\n<li>[ ] consider no plugins</li>\n</ul>\n"
    },
    {
      "component": "footer",
      "links": [
        {
          "href": "https://github.com/isthisnagee/minimal-vim",
          "text": "GitHub"
        },
        {
          "href": "https://github.com/isthisnagee",
          "text": "isthisnagee"
        }
      ]
    }
  ]
}